…
``` r
var(database$dv)
```

    ## [1] 13.23078

``` r
database %>%
  dplyr::select(deso, kommunnamn, lannamn, dv) %>%
  arrange(desc(dv)) %>% 
  slice_head(n = 30)
```

    ## # A tibble: 30 × 4
    ##    deso      kommunnamn lannamn         dv
    ##    <chr>     <chr>      <chr>        <int>
    ##  1 1880C1220 Örebro     Örebro         200
    ##  2 0580C1670 Linköping  Östergötland   131
    ##  3 0581C1030 Norrköping Östergötland    53
    ##  4 0581C1030 Norrköping Östergötland    53
    ##  5 0180C4040 Stockholm  Stockholm       44
    ##  6 0184C1310 Solna      Stockholm       43
    ##  7 0180C5340 Stockholm  Stockholm       37
    ##  8 1282C1170 Landskrona Skåne           37
    ##  9 1282C1170 Landskrona Skåne           37
    ## 10 1880C1190 Örebro     Örebro          33
    ## # ℹ 20 more rows
…
